{
    "firstName": "minh234",
    "lastName": "pham2233",
    "email": "minhphamhuy811@gmail.com",
    "userName": "minh1204430967675",
    "location": "UK",
    "personalSite": "https://www.instagram.com/",
    "bio": "I am a data analyst123",
    "interests": "reading",
    "instagramUsername": "minh",
    "twitterUsername": "minh",
    "paypalEmail": "abcdefgh@gmail.com"
}